{
  "project_info": {
    "project_number": "608975289168",
    "project_id": "tapapb-f472f",
    "storage_bucket": "tapapb-f472f.appspot.com"
  },
  "client": [
    {
      "client_info": {
        "mobilesdk_app_id": "1:608975289168:android:c59928cf5e209c28bc8a55",
        "android_client_info": {
          "package_name": "id.ub.tapapb"
        }
      },
      "oauth_client": [
        {
          "client_id": "608975289168-mk430sdpk5hc296fdqknl48igc98pn17.apps.googleusercontent.com",
          "client_type": 3
        }
      ],
      "api_key": [
        {
          "current_key": "AIzaSyDhptbmHSWZAUMUKjiDrFjZKgO9i8uEE7c"
        }
      ],
      "services": {
        "appinvite_service": {
          "other_platform_oauth_client": [
            {
              "client_id": "608975289168-mk430sdpk5hc296fdqknl48igc98pn17.apps.googleusercontent.com",
              "client_type": 3
            }
          ]
        }
      }
    }
  ],
  "configuration_version": "1"
}